{
  "version": "0.1",
  "dictionaries": [
    "spanish"
  ],
  "language": "en,es,en-US,en-GB,es-ES",
  "words": [
    "certdir",
    "dind",
    "editorconfig",
    "gitlab",
    "gomon",
    "idmap",
    "mkdir",
    "rootfs",
    "sshcmd",
    "sshfs",
    "sshvolume",
    "yzhang"
  ],
  "ignorePaths": [
    "cspell.json"
  ]
}
